<svg width="12" height="14" viewBox="0 0 12 14" fill="none" xmlns="http://www.w3.org/2000/svg">
  <path d="M10.6666 2.33333V13L8.33325 11.6667L5.99992 13L3.66659 11.6667L1.33325 13V2.33333C1.33325 1.97971 1.47373 1.64057 1.72378 1.39052C1.97382 1.14048 2.31296 1 2.66659 1H9.33325C9.68687 1 10.026 1.14048 10.2761 1.39052C10.5261 1.64057 10.6666 1.97971 10.6666 2.33333Z" stroke="#24262F" stroke-width="1.1" stroke-linecap="round" stroke-linejoin="round"/>
  <path d="M4 8H8M4 5H8H4Z" stroke="#24262F" stroke-width="1.1" stroke-linecap="round" stroke-linejoin="round"/>
</svg>
