<svg width="12" height="14" viewBox="0 0 12 14" fill="none" xmlns="http://www.w3.org/2000/svg">
  <path d="M9.77136 10.1047L6.94269 12.9333C6.81898 13.0571 6.67209 13.1554 6.5104 13.2224C6.3487 13.2894 6.17539 13.3239 6.00036 13.3239C5.82532 13.3239 5.65201 13.2894 5.49032 13.2224C5.32862 13.1554 5.18173 13.0571 5.05802 12.9333L2.22869 10.1047C1.48284 9.35876 0.974913 8.40845 0.769148 7.3739C0.563382 6.33934 0.669016 5.267 1.07269 4.29247C1.47637 3.31795 2.15995 2.48501 3.03701 1.89899C3.91407 1.31297 4.9452 1.00018 6.00002 1.00018C7.05485 1.00018 8.08598 1.31297 8.96304 1.89899C9.84009 2.48501 10.5237 3.31795 10.9274 4.29247C11.331 5.267 11.4367 6.33934 11.2309 7.3739C11.0251 8.40845 10.5172 9.35876 9.77136 10.1047V10.1047Z" stroke="#71737D" stroke-width="1.1" stroke-linecap="round" stroke-linejoin="round"/>
  <path d="M8 6.33331C8 6.86375 7.78929 7.37245 7.41421 7.74753C7.03914 8.1226 6.53043 8.33331 6 8.33331C5.46957 8.33331 4.96086 8.1226 4.58579 7.74753C4.21071 7.37245 4 6.86375 4 6.33331C4 5.80288 4.21071 5.29417 4.58579 4.9191C4.96086 4.54403 5.46957 4.33331 6 4.33331C6.53043 4.33331 7.03914 4.54403 7.41421 4.9191C7.78929 5.29417 8 5.80288 8 6.33331V6.33331Z" stroke="#71737D" stroke-width="1.1" stroke-linecap="round" stroke-linejoin="round"/>
</svg>
