<svg width="13" height="14" viewBox="0 0 13 14" fill="none" xmlns="http://www.w3.org/2000/svg">
  <path d="M8.11435 3.66661L3.72369 8.05728C3.59634 8.18028 3.49476 8.3274 3.42489 8.49007C3.35501 8.65275 3.31823 8.82771 3.31669 9.00475C3.31515 9.18178 3.34888 9.35736 3.41593 9.52122C3.48297 9.68508 3.58197 9.83395 3.70716 9.95914C3.83235 10.0843 3.98122 10.1833 4.14508 10.2504C4.30894 10.3174 4.48452 10.3512 4.66156 10.3496C4.8386 10.3481 5.01356 10.3113 5.17623 10.2414C5.3389 10.1715 5.48603 10.07 5.60902 9.94261L9.88502 5.55195C10.3708 5.04901 10.6396 4.3754 10.6335 3.67621C10.6274 2.97702 10.347 2.30819 9.85254 1.81376C9.35812 1.31934 8.68928 1.03889 7.99009 1.03282C7.2909 1.02674 6.61729 1.29552 6.11435 1.78128L1.83769 6.17128C1.08748 6.92149 0.666016 7.93899 0.666016 8.99995C0.666016 10.0609 1.08748 11.0784 1.83769 11.8286C2.5879 12.5788 3.6054 13.0003 4.66635 13.0003C5.72731 13.0003 6.74481 12.5788 7.49502 11.8286L11.6664 7.66661" stroke="#ABADB8" stroke-width="1.1" stroke-linecap="round" stroke-linejoin="round"/>
</svg>
