<svg width="18" height="18" viewBox="0 0 18 18" fill="none" xmlns="http://www.w3.org/2000/svg">
<path d="M1.00003 13.0001L5.58603 8.41406C5.96109 8.03912 6.4697 7.82849 7.00003 7.82849C7.53036 7.82849 8.03897 8.03912 8.41403 8.41406L13 13.0001M11 11.0001L12.586 9.41406C12.9611 9.03912 13.4697 8.82849 14 8.82849C14.5304 8.82849 15.039 9.03912 15.414 9.41406L17 11.0001M11 5.00006H11.01M3.00003 17.0001H15C15.5305 17.0001 16.0392 16.7893 16.4142 16.4143C16.7893 16.0392 17 15.5305 17 15.0001V3.00006C17 2.46963 16.7893 1.96092 16.4142 1.58585C16.0392 1.21077 15.5305 1.00006 15 1.00006H3.00003C2.4696 1.00006 1.96089 1.21077 1.58582 1.58585C1.21074 1.96092 1.00003 2.46963 1.00003 3.00006V15.0001C1.00003 15.5305 1.21074 16.0392 1.58582 16.4143C1.96089 16.7893 2.4696 17.0001 3.00003 17.0001Z" stroke="#0E0F14" stroke-width="1.1" stroke-linecap="round" stroke-linejoin="round"/>
</svg>
