<svg width="30" height="30" viewBox="0 0 30 30" fill="none" xmlns="http://www.w3.org/2000/svg">
<rect width="30" height="30" rx="15" fill="white"/>
<path d="M14.9997 21V9M19.6663 16.3333L14.9997 21L19.6663 16.3333ZM14.9997 21L10.333 16.3333L14.9997 21Z" stroke="#D6003D" stroke-width="1.1" stroke-linecap="round" stroke-linejoin="round"/>
</svg>
