<svg width="40" height="40" viewBox="0 0 40 40" fill="none" xmlns="http://www.w3.org/2000/svg">
<path fill-rule="evenodd" clip-rule="evenodd" d="M8.16612 18H12.0581C12.2361 14.908 12.8241 12.06 13.7321 9.764C12.2701 10.6598 11.017 11.8584 10.0569 13.279C9.0968 14.6996 8.45209 16.3094 8.16612 18ZM20.0001 4C15.7567 4 11.687 5.68571 8.68641 8.68629C5.68583 11.6869 4.00012 15.7565 4.00012 20C4.00012 24.2435 5.68583 28.3131 8.68641 31.3137C11.687 34.3143 15.7567 36 20.0001 36C24.2436 36 28.3132 34.3143 31.3138 31.3137C34.3144 28.3131 36.0001 24.2435 36.0001 20C36.0001 15.7565 34.3144 11.6869 31.3138 8.68629C28.3132 5.68571 24.2436 4 20.0001 4ZM20.0001 8C19.8481 8 19.5361 8.064 19.0701 8.524C18.5941 8.992 18.0761 9.77 17.5961 10.888C16.8181 12.702 16.2501 15.172 16.0641 18H23.9361C23.7501 15.172 23.1821 12.702 22.4041 10.888C21.9241 9.768 21.4041 8.992 20.9301 8.524C20.4641 8.064 20.1521 8 20.0001 8ZM27.9421 18C27.7641 14.908 27.1761 12.06 26.2681 9.764C27.7301 10.6598 28.9833 11.8584 29.9434 13.279C30.9034 14.6996 31.5482 16.3094 31.8341 18H27.9421ZM23.9361 22H16.0641C16.2501 24.828 16.8181 27.298 17.5961 29.112C18.0761 30.232 18.5961 31.008 19.0701 31.476C19.5361 31.936 19.8481 32 20.0001 32C20.1521 32 20.4641 31.936 20.9301 31.476C21.4061 31.008 21.9261 30.23 22.4041 29.112C23.1821 27.298 23.7501 24.828 23.9361 22ZM26.2681 30.236C27.1761 27.942 27.7641 25.092 27.9421 22H31.8341C31.5482 23.6906 30.9034 25.3004 29.9434 26.721C28.9833 28.1416 27.7301 29.3402 26.2681 30.236ZM13.7321 30.236C12.8241 27.94 12.2361 25.092 12.0601 22H8.16612C8.45209 23.6906 9.0968 25.3004 10.0569 26.721C11.017 28.1416 12.2701 29.3402 13.7321 30.236Z" fill="#0E0F14"/>
</svg>
