<svg width="40" height="40" viewBox="0 0 40 40" fill="none" xmlns="http://www.w3.org/2000/svg">
<g clip-path="url(#clip0)">
<path d="M39.9581 13.8192C39.9581 12.5561 38.9476 11.5456 37.6846 11.5456C36.4215 11.5456 35.411 12.5561 35.411 13.8192V20.0082C35.411 18.7451 34.4006 17.7347 33.1375 17.7347C31.8744 17.7347 30.864 18.7451 30.864 20.0082V18.6188C30.864 17.3558 29.8535 16.3453 28.5905 16.3453C27.3274 16.3453 26.3169 17.3558 26.3169 18.6188V9.06161C26.3169 7.79854 25.3065 6.78809 24.0434 6.78809C22.7803 6.78809 21.7699 7.79854 21.7699 9.06161V25.1868C21.7699 25.6499 21.1804 25.9025 20.8857 25.5657L18.4017 23.0817C17.6017 22.3238 16.3808 22.1975 15.4966 22.787C14.3599 23.5448 14.1494 25.1026 14.9914 26.1552L21.2225 33.6494C22.9487 35.7124 25.517 36.9333 28.2115 36.9333H32.0849C36.4636 36.9333 40.0002 33.3968 40.0002 29.0181C39.9581 26.2394 39.9581 15.7559 39.9581 13.8192Z" fill="#0E0F14"/>
<path d="M17.0124 15.8826V4.34656C17.0124 3.54661 16.2967 2.95718 15.5388 3.08349L5.6448 4.51497C5.01327 4.59917 4.55014 5.1465 4.55014 5.77804V15.0826C4.00281 14.8721 3.32918 14.83 2.69764 14.9563C0.929344 15.2932 -0.249521 16.7667 0.045195 18.2403C0.339911 19.7139 1.9819 20.6402 3.7502 20.3033C5.30799 20.0086 6.44475 18.7877 6.44475 17.4825V8.21997L15.202 6.9148V13.4828C14.6547 13.2723 13.9811 13.2301 13.3495 13.3565C11.5812 13.6933 10.4024 15.1669 10.6971 16.6404C10.9918 18.114 12.6338 19.0403 14.4021 18.7034C15.8757 18.3666 17.0124 17.1878 17.0124 15.8826Z" fill="#0E0F14"/>
</g>
<defs>
<clipPath id="clip0">
<rect width="40" height="40" fill="white"/>
</clipPath>
</defs>
</svg>
